<?xml version="1.0" encoding="utf-8"?>
<!-- Generator: Adobe Illustrator 16.0.0, SVG Export Plug-In . SVG Version: 6.00 Build 0)  -->
<!DOCTYPE svg PUBLIC "-//W3C//DTD SVG 1.1//EN" "http://www.w3.org/Graphics/SVG/1.1/DTD/svg11.dtd">
<svg version="1.1" xmlns="http://www.w3.org/2000/svg" xmlns:xlink="http://www.w3.org/1999/xlink" x="0px" y="0px"
	 width="34.125px" height="34.156px" viewBox="0 0 34.125 34.156" enable-background="new 0 0 34.125 34.156" xml:space="preserve">
<g id="Layer_1" display="none">
	<g display="inline">
		<path fill-rule="evenodd" clip-rule="evenodd" fill="#418cff" d="M29.49,1.816H8.462c-1.583,0-2.867,1.282-2.867,2.867v1.911
			H4.639c-1.583,0-2.867,1.283-2.867,2.868v19.115c0,2.111,1.712,3.823,3.823,3.823h22.939c2.112,0,3.823-1.712,3.823-3.823V4.684
			C32.357,3.099,31.073,1.816,29.49,1.816z M30.445,28.578c0,1.053-0.858,1.911-1.911,1.911H5.595c-1.053,0-1.912-0.858-1.912-1.911
			V9.463c0-0.527,0.429-0.957,0.956-0.957h0.956v19.116c0,0.529,0.428,0.956,0.956,0.956c0.529,0,0.956-0.427,0.956-0.956V4.684
			c0-0.527,0.429-0.956,0.956-0.956H29.49c0.526,0,0.955,0.429,0.955,0.956V28.578z"/>
		<path fill-rule="evenodd" clip-rule="evenodd" fill="#418cff" d="M14.783,10.448h13.071c0.393,0,0.709-0.317,0.709-0.709
			c0-0.393-0.316-0.709-0.709-0.709H14.783c-0.391,0-0.709,0.316-0.709,0.709C14.074,10.131,14.392,10.448,14.783,10.448z"/>
		<path fill-rule="evenodd" clip-rule="evenodd" fill="#418cff" d="M14.783,17.861h13.071c0.393,0,0.709-0.318,0.709-0.709
			c0-0.392-0.316-0.709-0.709-0.709H14.783c-0.391,0-0.709,0.317-0.709,0.709C14.074,17.543,14.392,17.861,14.783,17.861z"/>
		<path fill-rule="evenodd" clip-rule="evenodd" fill="#418cff" d="M14.783,25.274h13.071c0.393,0,0.709-0.317,0.709-0.709
			s-0.316-0.709-0.709-0.709H14.783c-0.391,0-0.709,0.317-0.709,0.709S14.392,25.274,14.783,25.274z"/>
		<g>
			<path fill="#418cff" d="M10.019,9.864l-0.134,0.795c-0.025,0.151,0.041,0.305,0.167,0.392c0.123,0.085,0.291,0.094,0.425,0.022
				l0.677-0.364l0.678,0.365c0.06,0.031,0.126,0.048,0.193,0.048c0.083,0,0.163-0.024,0.231-0.071
				c0.126-0.087,0.192-0.24,0.167-0.391L12.29,9.864l0.575-0.573c0.107-0.107,0.144-0.263,0.095-0.407
				c-0.049-0.141-0.172-0.243-0.322-0.265l-0.78-0.115l-0.339-0.705c-0.066-0.137-0.21-0.226-0.364-0.226
				c-0.155,0-0.298,0.089-0.364,0.226l-0.339,0.705L9.67,8.619c-0.15,0.021-0.273,0.124-0.322,0.265
				c-0.049,0.143-0.012,0.3,0.095,0.407L10.019,9.864z"/>
			<path fill="#418cff" d="M12.638,16.031l-0.78-0.115l-0.339-0.703c-0.066-0.139-0.21-0.227-0.364-0.227
				c-0.155,0-0.298,0.088-0.364,0.227l-0.339,0.703L9.67,16.031c-0.15,0.022-0.273,0.125-0.322,0.267
				c-0.049,0.143-0.012,0.3,0.095,0.405l0.575,0.575l-0.134,0.795c-0.025,0.15,0.041,0.305,0.167,0.392
				c0.123,0.084,0.291,0.094,0.425,0.022l0.677-0.364l0.678,0.364c0.06,0.031,0.126,0.049,0.193,0.049
				c0.083,0,0.163-0.025,0.231-0.071c0.126-0.087,0.192-0.241,0.167-0.392l-0.133-0.795l0.575-0.573
				c0.107-0.107,0.144-0.265,0.095-0.407C12.911,16.156,12.787,16.054,12.638,16.031z"/>
			<path fill="#418cff" d="M12.638,23.445l-0.78-0.116l-0.339-0.703c-0.066-0.138-0.21-0.228-0.364-0.228
				c-0.155,0-0.298,0.09-0.364,0.228l-0.339,0.703L9.67,23.445c-0.15,0.022-0.273,0.123-0.322,0.265
				c-0.049,0.145-0.012,0.3,0.095,0.406l0.575,0.575l-0.134,0.796c-0.025,0.149,0.041,0.302,0.167,0.391
				c0.123,0.083,0.291,0.094,0.425,0.022l0.13-0.071c0.039-0.015,0.08-0.036,0.118-0.063l0.429-0.231l0.678,0.366
				c0.06,0.031,0.126,0.049,0.193,0.049c0.083,0,0.163-0.024,0.231-0.071c0.126-0.089,0.192-0.241,0.167-0.391l-0.133-0.796
				l0.575-0.575c0.107-0.106,0.144-0.262,0.095-0.406C12.911,23.568,12.787,23.468,12.638,23.445z"/>
		</g>
	</g>
</g>
<g id="Layer_2" display="none">
	<path display="inline" fill="#418cff" d="M23.179,26.095H10.482l-3.33-8.393c-1.311-0.166-2.327-1.288-2.327-2.643
		c0-1.468,1.195-2.662,2.663-2.662c1.467,0,2.661,1.194,2.661,2.662c0,0.22-0.028,0.438-0.084,0.65l2.629,2.066l2.223-5.181
		c-0.496-0.491-0.777-1.155-0.777-1.872c0-1.469,1.193-2.662,2.66-2.662c1.469,0,2.664,1.193,2.664,2.662
		c0,0.624-0.219,1.217-0.612,1.688l2.057,5.319l2.769-2.273c-0.02-0.133-0.031-0.266-0.031-0.398c0-1.468,1.195-2.662,2.662-2.662
		c1.469,0,2.662,1.194,2.662,2.662c0,1.359-1.023,2.484-2.34,2.644L23.179,26.095z M11.501,24.595h10.673l3.473-8.441l0.555,0.055
		l0.055,0.762l0.07-0.746c0.623-0.001,1.145-0.523,1.145-1.164s-0.521-1.162-1.162-1.162s-1.162,0.521-1.162,1.162
		c0,0.135,0.026,0.268,0.079,0.406l0.192,0.504l-5.16,4.238l-3.184-8.234l0.439-0.342c0.287-0.225,0.451-0.556,0.451-0.908
		c0-0.641-0.521-1.162-1.164-1.162c-0.64,0-1.16,0.521-1.16,1.162c0,0.408,0.215,0.779,0.575,0.993l0.566,0.336l-3.479,8.11
		l-5.095-4.006l0.297-0.555c0.096-0.18,0.145-0.361,0.145-0.543c0-0.641-0.521-1.162-1.161-1.162c-0.641,0-1.163,0.521-1.163,1.162
		s0.522,1.163,1.163,1.163l0.665-0.066L11.501,24.595z"/>
	<path display="inline" fill="#418cff" d="M17.1,33.833c-9.263,0-16.799-7.536-16.799-16.8s7.536-16.8,16.799-16.8
		c9.264,0,16.801,7.536,16.801,16.8S26.363,33.833,17.1,33.833z M17.1,2.333c-8.105,0-14.7,6.595-14.7,14.7s6.595,14.7,14.7,14.7
		c8.105,0,14.701-6.595,14.701-14.7S25.205,2.333,17.1,2.333z"/>
</g>
<g id="Layer_3">
	<g>
		<path fill-rule="evenodd" clip-rule="evenodd" fill="#418cff" d="M32.666,11.262L22.478,1.073
			c-0.505-0.505-1.237-0.708-1.933-0.538c-0.366,0.09-0.692,0.279-0.951,0.538c-0.23,0.231-0.406,0.517-0.506,0.838
			c-0.461,1.497-1.26,2.798-2.439,3.978c-1.578,1.576-3.633,2.771-5.806,4.032c-2.306,1.337-4.69,2.723-6.643,4.674
			c-1.66,1.662-2.79,3.511-3.453,5.656c-0.223,0.725-0.028,1.508,0.506,2.044l10.189,10.188c0.505,0.506,1.238,0.709,1.933,0.538
			c0.365-0.092,0.691-0.278,0.951-0.538c0.23-0.23,0.405-0.517,0.505-0.84c0.462-1.496,1.26-2.797,2.442-3.978
			c1.576-1.576,3.63-2.769,5.805-4.03c2.305-1.339,4.689-2.725,6.641-4.676c1.66-1.66,2.791-3.512,3.453-5.656
			C33.395,12.581,33.2,11.795,32.666,11.262z M12.885,31.044C9.51,27.668,6.069,24.228,2.693,20.854
			c2.896-9.376,15.447-8.966,18.342-18.341c3.375,3.373,6.815,6.813,10.191,10.188C28.33,22.076,15.778,21.668,12.885,31.044z"/>
		<g>
			<path fill="#418cff" d="M7.205,21.739c-0.247-0.246-0.364-0.477-0.353-0.698c0.011-0.219,0.128-0.44,0.35-0.663l2.554-2.57
				c0.188-0.188,0.368-0.301,0.538-0.335c0.171-0.032,0.344,0.038,0.519,0.212c0.17,0.17,0.241,0.34,0.211,0.514
				c-0.031,0.174-0.14,0.354-0.328,0.543l-2.073,2.086l1.195,1.188l1.755-1.765c0.17-0.171,0.336-0.271,0.497-0.307
				c0.16-0.034,0.326,0.035,0.497,0.205c0.166,0.165,0.233,0.329,0.204,0.493c-0.031,0.162-0.131,0.33-0.301,0.501l-1.754,1.765
				l1.601,1.592c0.175,0.175,0.265,0.367,0.268,0.577c0.003,0.211-0.085,0.405-0.265,0.586c-0.174,0.177-0.369,0.265-0.581,0.265
				c-0.212,0.001-0.407-0.086-0.582-0.261L7.205,21.739z"/>
			<path fill="#418cff" d="M12.547,18.587c-0.152-0.15-0.228-0.313-0.225-0.485c0.002-0.172,0.069-0.327,0.207-0.464
				c0.137-0.139,0.292-0.209,0.465-0.211c0.172-0.004,0.334,0.07,0.486,0.221l0.398,0.397l0.014-0.015
				c-0.186-0.326-0.294-0.639-0.325-0.94c-0.032-0.3,0.067-0.565,0.298-0.798c0.166-0.166,0.35-0.255,0.551-0.268
				c0.201-0.014,0.375,0.055,0.521,0.199c0.181,0.181,0.264,0.361,0.25,0.539c-0.014,0.18-0.094,0.344-0.24,0.491l-0.184,0.185
				c-0.217,0.219-0.291,0.467-0.221,0.75c0.069,0.28,0.313,0.629,0.73,1.043l1.209,1.203c0.158,0.156,0.244,0.32,0.261,0.492
				c0.018,0.173-0.069,0.354-0.257,0.544c-0.189,0.189-0.369,0.276-0.543,0.261c-0.172-0.017-0.336-0.102-0.493-0.258L12.547,18.587
				z"/>
			<path fill="#418cff" d="M17.827,16.606c0.28,0.278,0.593,0.42,0.937,0.423c0.347,0.004,0.668-0.145,0.965-0.444
				c0.197-0.199,0.325-0.38,0.381-0.546c0.058-0.166,0.092-0.354,0.106-0.568c0.004-0.136,0.017-0.251,0.04-0.341
				c0.024-0.089,0.076-0.174,0.156-0.255c0.117-0.118,0.26-0.177,0.43-0.175c0.167,0,0.301,0.053,0.4,0.15
				c0.146,0.146,0.227,0.328,0.24,0.55c0.012,0.22-0.027,0.452-0.115,0.698c-0.09,0.246-0.209,0.482-0.356,0.707
				c-0.149,0.226-0.307,0.422-0.472,0.586c-0.344,0.348-0.696,0.596-1.059,0.746c-0.36,0.15-0.711,0.217-1.053,0.197
				c-0.34-0.018-0.66-0.1-0.959-0.244c-0.297-0.146-0.564-0.338-0.803-0.573c-0.611-0.608-0.927-1.271-0.946-1.987
				c-0.019-0.717,0.272-1.378,0.877-1.986c0.288-0.289,0.595-0.505,0.921-0.648c0.326-0.143,0.652-0.214,0.98-0.215
				c0.326-0.001,0.631,0.058,0.914,0.174c0.285,0.117,0.536,0.286,0.754,0.502c0.176,0.176,0.263,0.324,0.261,0.449
				c-0.003,0.126-0.091,0.275-0.265,0.452L17.827,16.606z M19.041,14.19c-0.271-0.212-0.565-0.313-0.881-0.303
				c-0.317,0.01-0.59,0.129-0.816,0.357c-0.25,0.25-0.383,0.53-0.396,0.834c-0.017,0.307,0.078,0.617,0.281,0.934L19.041,14.19z"/>
			<path fill="#418cff" d="M22.157,12.251c0.278,0.278,0.593,0.42,0.937,0.423c0.348,0.004,0.668-0.145,0.964-0.444
				c0.198-0.199,0.326-0.379,0.382-0.546c0.057-0.166,0.092-0.354,0.105-0.567c0.004-0.137,0.018-0.252,0.042-0.341
				c0.024-0.09,0.073-0.175,0.155-0.257c0.117-0.119,0.261-0.176,0.428-0.174c0.17,0,0.303,0.051,0.402,0.15
				c0.146,0.146,0.227,0.329,0.238,0.55c0.014,0.22-0.025,0.452-0.115,0.698s-0.207,0.482-0.355,0.707
				c-0.148,0.226-0.305,0.42-0.471,0.587c-0.344,0.347-0.698,0.595-1.059,0.745c-0.361,0.15-0.713,0.217-1.053,0.198
				s-0.66-0.1-0.959-0.245c-0.299-0.146-0.564-0.338-0.805-0.573c-0.61-0.608-0.926-1.271-0.945-1.987
				c-0.018-0.716,0.273-1.379,0.879-1.986c0.286-0.289,0.595-0.505,0.919-0.648c0.326-0.143,0.653-0.215,0.981-0.215
				c0.324-0.002,0.631,0.057,0.913,0.174c0.284,0.118,0.537,0.286,0.755,0.502c0.176,0.176,0.262,0.324,0.26,0.449
				c-0.002,0.126-0.09,0.276-0.265,0.453L22.157,12.251z M23.371,9.835c-0.271-0.213-0.565-0.313-0.882-0.304
				c-0.316,0.011-0.589,0.13-0.815,0.358c-0.249,0.251-0.383,0.53-0.398,0.835c-0.016,0.306,0.08,0.616,0.283,0.933L23.371,9.835z"
				/>
		</g>
	</g>
</g>
<g id="Layer_4" display="none">
	<g id="tv_1_" display="inline">
		<path fill="#418cff" d="M23.193,9.427c-2.707-0.557-5.455-0.839-8.164-0.839c-2.711,0-5.457,0.282-8.166,0.839
			c-0.35,0.072-0.637,0.326-0.748,0.667c-1.443,4.381-1.443,8.822,0,13.203c0.111,0.341,0.398,0.595,0.748,0.667
			c2.709,0.557,5.455,0.839,8.166,0.839c2.709,0,5.457-0.282,8.164-0.839c0.352-0.072,0.637-0.326,0.75-0.667
			c1.441-4.381,1.441-8.822,0-13.203C23.83,9.753,23.545,9.499,23.193,9.427z M22.992,22.984c-5.309,1.091-10.619,1.091-15.927,0
			c-1.381-4.193-1.381-8.385,0-12.578c5.308-1.091,10.619-1.091,15.927,0C24.373,14.6,24.373,18.791,22.992,22.984z"/>
		<path fill="#418cff" d="M31.877,7.123c-0.193-0.814-0.875-1.422-1.705-1.522c-4.359-0.529-8.781-0.798-13.143-0.798
			S8.247,5.071,3.885,5.601c-0.83,0.101-1.51,0.708-1.703,1.522c-1.529,6.423-1.529,12.937,0,19.359
			c0.193,0.814,0.873,1.422,1.703,1.522c2.102,0.255,4.217,0.442,6.332,0.575c-0.115,0.072-0.188,0.146-0.188,0.223
			c0,0.553,3.132,1,7,1c3.865,0,7-0.447,7-1c0-0.076-0.074-0.15-0.188-0.223c2.115-0.133,4.23-0.32,6.33-0.575
			c0.83-0.101,1.512-0.708,1.705-1.522C33.406,20.06,33.406,13.546,31.877,7.123z M29.932,26.02c-8.602,1.044-17.203,1.044-25.804,0
			c-1.463-6.145-1.463-12.289,0-18.434c8.601-1.044,17.203-1.044,25.804,0C31.395,13.73,31.395,19.875,29.932,26.02z"/>
		<path fill="#418cff" d="M27.529,12.803c0.828,0,1.5-0.672,1.5-1.5s-0.672-1.5-1.5-1.5s-1.5,0.672-1.5,1.5
			S26.701,12.803,27.529,12.803z M27.529,10.803c0.275,0,0.5,0.225,0.5,0.5s-0.225,0.5-0.5,0.5s-0.5-0.225-0.5-0.5
			S27.254,10.803,27.529,10.803z"/>
		<path fill="#418cff" d="M28.529,22.803h-3c-0.277,0-0.5,0.224-0.5,0.5s0.223,0.5,0.5,0.5h3c0.275,0,0.5-0.224,0.5-0.5
			S28.805,22.803,28.529,22.803z"/>
		<path fill="#418cff" d="M29.529,19.803h-3c-0.277,0-0.5,0.224-0.5,0.5s0.223,0.5,0.5,0.5h3c0.275,0,0.5-0.224,0.5-0.5
			S29.805,19.803,29.529,19.803z"/>
		<path fill="#418cff" d="M29.529,16.803h-3c-0.277,0-0.5,0.224-0.5,0.5s0.223,0.5,0.5,0.5h3c0.275,0,0.5-0.224,0.5-0.5
			S29.805,16.803,29.529,16.803z"/>
		<path fill="#418cff" d="M14.529,12.607l-4.585,0.359c-0.273,0.031-0.535,0.279-0.58,0.551l-0.307,2.786
			c-0.014,0.274,0.199,0.499,0.475,0.499c0.273,0,0.506-0.225,0.518-0.5l0.166-1.895c0.037-0.272,0.291-0.518,0.564-0.546
			l3.75-0.257c0.275-0.01,0.5-0.242,0.5-0.518S14.805,12.597,14.529,12.607z"/>
	</g>
</g>
<g id="Layer_5" display="none">
	<path id="paperplane_1_" display="inline" fill="#418cff" d="M32.489,1.224c-0.166-0.107-0.355-0.16-0.543-0.16
		c-0.193,0-0.387,0.055-0.555,0.168l-30,20c-0.309,0.205-0.479,0.566-0.439,0.936c0.037,0.369,0.277,0.688,0.623,0.824L9.4,26.122
		l3.678,6.438c0.176,0.309,0.504,0.5,0.857,0.504c0.004,0,0.008,0,0.012,0c0.35,0,0.676-0.186,0.857-0.486l2.076-3.463l9.694,3.877
		c0.119,0.049,0.244,0.072,0.371,0.072c0.17,0,0.338-0.043,0.49-0.129c0.264-0.148,0.445-0.408,0.496-0.707l5-30
		C32.997,1.835,32.823,1.44,32.489,1.224z M4.083,21.841L27.257,6.39L10.408,24.427c-0.088-0.053-0.168-0.123-0.266-0.162
		L4.083,21.841z M11.136,25.13c-0.002-0.004-0.006-0.006-0.008-0.01L30.071,4.845L13.924,30.007L11.136,25.13z M26.163,30.673
		l-8.541-3.416c-0.202-0.08-0.413-0.107-0.622-0.119L30.151,6.749L26.163,30.673z"/>
</g>
<g id="Layer_6" display="none">
	<g id="bubble_1_" display="inline">
		<path fill-rule="evenodd" clip-rule="evenodd" fill="#418cff" d="M17.063,2.812c-9.244,0-16.738,5.621-16.738,12.553
			c0,4.316,2.908,8.123,7.331,10.383c0,0.028-0.008,0.047-0.008,0.078c0,1.875-1.4,3.894-2.017,4.954h0.002
			c-0.049,0.114-0.078,0.241-0.078,0.374c0,0.523,0.424,0.947,0.948,0.947c0.098,0,0.271-0.026,0.267-0.013
			c3.269-0.536,6.349-3.539,7.064-4.41c1.045,0.153,2.123,0.239,3.229,0.239c9.242,0,16.736-5.621,16.736-12.553
			C33.799,8.433,26.305,2.812,17.063,2.812z M17.063,25.826c-0.959,0-1.943-0.073-2.926-0.217c-0.1-0.016-0.202-0.023-0.303-0.023
			c-0.621,0-1.217,0.277-1.617,0.766c-0.447,0.545-1.722,1.76-3.227,2.656c0.408-0.936,0.728-1.986,0.749-3.066
			c0.006-0.067,0.009-0.135,0.009-0.193c0-0.785-0.44-1.506-1.14-1.863c-3.876-1.98-6.19-5.164-6.19-8.52
			c0-5.768,6.57-10.461,14.646-10.461c8.075,0,14.645,4.693,14.645,10.461S25.138,25.826,17.063,25.826z"/>
	</g>
	<g display="inline">
		<path fill="#418cff" d="M24.754,20.406c-0.061,0.436-0.119,0.762-0.173,0.98c-0.055,0.217-0.167,0.453-0.336,0.707
			c-0.181,0.254-0.396,0.453-0.644,0.6c-0.248,0.145-0.523,0.235-0.826,0.271c-0.23,0.036-0.496,0.057-0.799,0.063
			c-0.303,0.006-0.599,0.003-0.889-0.009c-0.291-0.012-0.548-0.024-0.771-0.037c-0.225-0.012-0.36-0.023-0.408-0.035
			c-0.642-0.109-1.047-0.34-1.217-0.689c-0.169-0.352-0.254-0.781-0.254-1.289V16.16h-2.486c-0.012,0.786-0.108,1.563-0.289,2.332
			c-0.182,0.768-0.49,1.473-0.926,2.113c-0.436,0.653-1.014,1.219-1.733,1.697c-0.72,0.478-1.6,0.819-2.641,1.025l-0.526-1.234
			c0.69-0.036,1.334-0.209,1.934-0.518c0.598-0.309,1.115-0.723,1.551-1.242c0.436-0.509,0.78-1.117,1.035-1.824
			c0.254-0.708,0.368-1.491,0.344-2.35h-4.664v-1.107h6.733v-3.086H13.03c-0.17,0.352-0.399,0.771-0.69,1.262
			c-0.289,0.49-0.563,0.936-0.816,1.334l-1.035-0.78c0.254-0.351,0.52-0.756,0.799-1.216c0.278-0.459,0.55-0.938,0.816-1.434
			c0.267-0.508,0.517-1.022,0.753-1.543c0.236-0.52,0.445-1.027,0.627-1.523l1.106,0.471c-0.073,0.194-0.154,0.391-0.245,0.59
			c-0.091,0.2-0.179,0.396-0.264,0.59c-0.096,0.206-0.189,0.408-0.281,0.608c-0.09,0.2-0.178,0.39-0.263,0.571h3.23v-1.67
			c0-0.241-0.007-0.508-0.019-0.798s-0.043-0.544-0.09-0.763h1.469c-0.035,0.109-0.061,0.23-0.072,0.363s-0.018,0.267-0.018,0.399
			c-0.013,0.146-0.016,0.288-0.01,0.427s0.01,0.27,0.01,0.391v1.65h5.517v1.07h-5.517v3.086h6.279v1.107h-4.609v4.318
			c0,0.158,0.002,0.314,0.008,0.473c0.006,0.156,0.033,0.302,0.082,0.436c0.061,0.145,0.146,0.26,0.254,0.344
			c0.109,0.085,0.272,0.127,0.49,0.127c0.146,0.012,0.309,0.024,0.49,0.037c0.182,0.012,0.363,0.023,0.545,0.036
			c0.181,0,0.359-0.003,0.535-0.009c0.175-0.007,0.336-0.033,0.48-0.082c0.205-0.049,0.372-0.143,0.499-0.281
			s0.221-0.306,0.281-0.499c0.073-0.182,0.121-0.375,0.146-0.581c0.023-0.205,0.036-0.398,0.036-0.58L24.754,20.406z"/>
	</g>
</g>
<g id="Layer_7" display="none">
	<g id="calendar_2_" display="inline">
		<g>
			<path fill="#5983C3" d="M30.375,3.053h-4.334v-2c0-0.553-0.447-1-1-1s-1,0.447-1,1v2h-6v-2c0-0.553-0.447-1-1-1s-1,0.447-1,1v2
				h-6v-2c0-0.553-0.447-1-1-1s-1,0.447-1,1v2H3.707c-1.473,0-2.666,1.193-2.666,2.666v23.667c0,1.473,1.193,2.667,2.666,2.667
				h26.668c1.473,0,2.666-1.194,2.666-2.667V5.719C33.041,4.246,31.848,3.053,30.375,3.053z M31.041,29.386
				c0,0.368-0.299,0.667-0.666,0.667H3.707c-0.367,0-0.666-0.299-0.666-0.667V5.719c0-0.367,0.299-0.666,0.666-0.666h4.334v2
				c0,0.553,0.447,1,1,1s1-0.447,1-1v-2h6v2c0,0.553,0.447,1,1,1s1-0.447,1-1v-2h6v2c0,0.553,0.447,1,1,1s1-0.447,1-1v-2h4.334
				c0.367,0,0.666,0.299,0.666,0.666V29.386z"/>
			<rect x="8.041" y="12.053" fill="#5983C3" width="4" height="3"/>
			<rect x="8.041" y="17.053" fill="#5983C3" width="4" height="3"/>
			<rect x="8.041" y="22.053" fill="#5983C3" width="4" height="3"/>
			<rect x="15.041" y="22.053" fill="#5983C3" width="4" height="3"/>
			<rect x="15.041" y="17.053" fill="#5983C3" width="4" height="3"/>
			<rect x="15.041" y="12.053" fill="#5983C3" width="4" height="3"/>
			<rect x="22.041" y="22.053" fill="#5983C3" width="4" height="3"/>
			<rect x="22.041" y="17.053" fill="#5983C3" width="4" height="3"/>
			<rect x="22.041" y="12.053" fill="#5983C3" width="4" height="3"/>
		</g>
	</g>
</g>
<g id="Layer_8" display="none">
	<path id="star_2_" display="inline" fill="#5983C3" d="M33.436,12.908c-0.287-0.83-1.025-1.438-1.914-1.569l-8.651-1.286
		l-3.762-7.808C18.714,1.425,17.867,0.9,16.936,0.9s-1.778,0.524-2.174,1.345l-3.761,7.808l-8.652,1.286
		c-0.889,0.132-1.627,0.739-1.914,1.569c-0.286,0.832-0.07,1.748,0.558,2.375l6.34,6.33l-1.47,8.781
		c-0.149,0.885,0.234,1.771,0.985,2.289c0.413,0.283,0.898,0.428,1.383,0.428c0.399,0,0.798-0.098,1.162-0.291l7.543-4.061
		l7.543,4.061c0.363,0.193,0.764,0.291,1.16,0.291c0.486,0,0.971-0.145,1.385-0.428c0.75-0.518,1.133-1.404,0.985-2.289
		l-1.472-8.781l6.342-6.33C33.506,14.656,33.721,13.74,33.436,12.908z M24.819,19.98c-0.532,0.531-0.772,1.277-0.65,2.01l1.47,8.782
		l-7.542-4.06c-0.362-0.195-0.762-0.293-1.161-0.293s-0.799,0.098-1.161,0.293l-7.543,4.06l1.471-8.782
		c0.123-0.732-0.119-1.479-0.65-2.01l-6.34-6.329l8.651-1.289c0.791-0.118,1.471-0.612,1.811-1.317l3.762-7.806l3.762,7.806
		c0.34,0.705,1.02,1.199,1.81,1.317l8.652,1.289L24.819,19.98z"/>
</g>
</svg>
